[
  {
    "artist": "Marvin Gaye",
    "title": "What's Going On",
    "releaseYear": "1971",
    "genre": "Rock",
    "price": 8.99,
    "url": "img/MarvinGayeWhat'sGoingOnalbumcover.jpg",
    "article": 1
  },
  {
    "artist": "The Beach Boys",
    "title": "Pet Sounds",
    "releaseYear": "1966",
    "genre": "Rock",
    "price": 17.59,
    "url": "img/TheBeachBoysPetSounds.png",
    "article": 2
  },
  {
    "artist": "Nirvana",
    "title": "Nevermind",
    "releaseYear": "1991",
    "genre": "Rock",
    "price": 14.99,
    "url": "img/NirvanaNevermindalbumcover.jpg",
    "article": 3
  },

  {
    "artist": "Jimi Hendrix Experience",
    "title": "Are You Experienced?",
    "releaseYear": "1967",
    "genre": "Rock",
    "price": 22.99,
    "url": "img/AreyouexpUK.jpg",
    "article": 4
  },
  {
    "artist": "U2",
    "title": "The Joshua Tree",
    "releaseYear": "1987",
    "genre": "Rock",
    "price": 14.99,
    "url": "img/The_Joshua_Tree.png",
    "article": 5
  },
  {
    "artist": "The Beatles",
    "title": "Abbey Road",
    "releaseYear": "1969",
    "genre": "Rock",
    "price": 14.99,
    "url": "img/Beatles_-_Abbey_Road.jpg",
    "article": 6
  },
  {
    "artist": "Fleetwood Mac",
    "title": "Rumours",
    "releaseYear": "1977",
    "genre": "Rock",
    "price": 14.99,
    "url": "img/FMacRumours.PNG",
    "article": 7
  },
  {
    "artist": "Elvis Presley",
    "title": "Sun Sessions",
    "releaseYear": "1976",
    "genre": "Rock",
    "price": 14.99,
    "url": "img/274px-Elvis_Presley_The_Sun_Sessions.jpeg",
    "article": 8
  },
  {
    "artist": "Michael Jackson",
    "title": "Thriller",
    "releaseYear": "1982",
    "genre": "Pop",
    "price": 14.99,
    "url": "img/274px-Thriller_cover.jpg",
    "article": 9
  },
  {
    "artist": "The Rolling Stones",
    "title": "Exile on Main Street",
    "releaseYear": "1972",
    "genre": "Rock",
    "price": 14.99,
    "url": "img/ExileMainSt.jpg",
    "article": 10
  },
  {
    "artist": "Bruce Springsteen",
    "title": "Born to Run",
    "releaseYear": "1975",
    "genre": "Rock",
    "price": 14.99,
    "url": "img/Borntorunsingle.jpg",
    "article": 11
  },
  {
    "artist": "The Eagles",
    "title": "Hotel California",
    "releaseYear": "1976",
    "genre": "Rock",
    "price": 14.99,
    "url": "img/274px-Hotel_California_album.jpg",
    "article": 12
  },
  {
    "artist": "Led Zeppelin",
    "title": "Led Zeppelin",
    "releaseYear": "1969",
    "genre": "Rock",
    "price": 14.99,
    "url": "img/274px-Led_Zeppelin_I.jpg",
    "article": 13
  },
  {
    "artist": "Robert Johnson",
    "title": "King of the Delta Blues",
    "releaseYear": "1961",
    "genre": "Blues",
    "price": 14.99,
    "url": "img/KotDBS1.jpg",
    "article": 14
  }
]

